{
	"semester": [{
			"predmet": [{
					"informacije": [{
						"naziv": "VIKT",
						"opis": "Principi in cilji varnosti, tveganja v IKT.",
						"obdobje_izvajanja": "Semester 1",
						"izvajatelj": "Marko Holbl",
						"asistent": "Lili Nemec Zlatolas"
					}]
				},
				{
					"vaje": [{
						"naloge": [{
								"naloga": "1",
								"naziv": "Analiza mreznega prometa",
								"opis": "Naloga je sestavljena iz vec delov. Resili jo boste s pomocjo programa Wireshark.",
								"datum_objave": "2016-10-02",
								"datum_oddaje": "2016-10-23",
								"ura_oddaje": "23:55",
								"stevilo_tock": "15"
							},
							{
								"naloga": "2",
								"naziv": "Iskanje ranljivosti na spletni strani",
								"opis": "Registrirajte se na spletni strani HackThisSite.org.",
								"datum_objave": "2016-10-23",
								"datum_oddaje": "2016-11-13",
								"ura_oddaje": "23:55",
								"stevilo_tock": "10"
							},
							{
								"naloga": "3",
								"naziv": "Frekvencna analiza",
								"opis": "Vasa naloga je izdelava programa za frekvencno analizo, ki omogoca (delno) razkritje besedila in rocno zamenjavo posameznih crk kljuca. Ker bo vas program omogocil samo delno razkritje besedila,boste s pomocjo rocne zamenjave crk kljuca prisli do popolnoma desifriranega besedila.",
								"datum_objave": "2016-11-13",
								"datum_oddaje": "2016-11-27",
								"ura_oddaje": "23:55",
								"stevilo_tock": "15"
							},
							{
								"naloga": "4",
								"naziv": "Vigenerjeva sifra",
								"opis": "Vasa naloga je implementacija Vigenerjeve sifre. Uporabite besedilo iz Moodla. Kljuc, ki ga uporabite za sifriranje naj vnese uporabnik.",
								"datum_objave": "2016-11-27",
								"datum_oddaje": "2016-12-18",
								"ura_oddaje": "23:55",
								"stevilo_tock": "10"
							}
						]
					}]
				},
				{
					"predavanja": [{
							"vmesni_izpiti": [{
									"kolokvij": "1",
									"gradivo": "-",
									"datum": "2016-12-02",
									"stevilo_tock": "25"
								},
								{
									"kolokvij": "2",
									"gradivo": "-",
									"datum": "2017-01-14",
									"stevilo_tock": "25"
								}
							]
						},
						{
							"izpiti": [{
									"izpit": "1",
									"gradivo": "-",
									"datum": "2017-02-18",
									"stevilo_tock": "50"
								},
								{
									"izpit": "2",
									"gradivo": "-",
									"datum": "2017-06-25",
									"stevilo_tock": "50"
								},
								{
									"izpit": "3",
									"gradivo": "-",
									"datum": "2017-09-03",
									"stevilo_tock": "50"
								}
							]
						}
					]
				}
			]
		},
		{
			"predmet": [{
					"informacije": [{
						"naziv": "KIS",
						"opis": "Spoznati pomen integracije in konvergence sistemov.",
						"obdobje_izvajanja": "Semester 1",
						"izvajatelj": "Bostjan Sumak",
						"asistent": "Maja Pusnik"
					}]
				},
				{
					"vaje": [{
						"naloge": [{
								"naloga": "1",
								"naziv": "Izbira projekta",
								"opis": "Pripravite nacrt za integracijo dveh ali vec storitev, ki ga boste implementirali sami ali v sodelovanju s sosolcem. ",
								"datum_objave": "2016-10-02",
								"datum_oddaje": "2016-10-18",
								"ura_oddaje": "23:55",
								"stevilo_tock": "15"
							},
							{
								"naloga": "2",
								"naziv": "Strukturiran zapis podatkov in validacija",
								"opis": "Na podlagi dokumentov, ki ste jih pripravili v nalogi 1 (nestrukturirani podatki), sestavite 2 ali vec XML dokumentov, ki bodo vsebovali podatke v sklopu izbranega poslovnega procesa. XML dokumenta naj bosta med seboj povezana z enim izbranim gradnikom (atribut ID). ",
								"datum_objave": "2016-10-18",
								"datum_oddaje": "2016-10-25",
								"ura_oddaje": "23:55",
								"stevilo_tock": "20"
							},
							{
								"naloga": "3",
								"naziv": "Validacija XML dokumentov s pomocjo XML shem",
								"opis": "Za vse XML dokumente kreirajte skupno XML shemo, ki bo vkljucevala vse potrebne elemente in atribute. Poskrbite za:..",
								"datum_objave": "2016-10-25",
								"datum_oddaje": "2016-11-10",
								"ura_oddaje": "23:55",
								"stevilo_tock": "15"
							}
						]
					}]
				},
				{
					"predavanja": [{
							"vmesni_izpiti": [{
									"kolokvij": "1",
									"gradivo": "-",
									"datum": "2016-11-28",
									"stevilo_tock": "25"
								},
								{
									"kolokvij": "2",
									"gradivo": "-",
									"datum": "2017-01-15",
									"stevilo_tock": "25"
								}
							]
						},
						{
							"izpiti": [{
									"izpit": "1",
									"gradivo": "-",
									"datum": "2017-02-11",
									"stevilo_tock": "50"
								},
								{
									"izpit": "2",
									"gradivo": "-",
									"datum": "2017-07-03",
									"stevilo_tock": "50"
								},
								{
									"izpit": "3",
									"gradivo": "-",
									"datum": "2017-08-25",
									"stevilo_tock": "50"
								}
							]
						}
					]
				}
			]
		},
		{
			"predmet": [{
					"informacije": [{
						"naziv": "OPK",
						"opis": "-",
						"obdobje_izvajanja": "Semester 1",
						"izvajatelj": "Ivan Rozman",
						"asistent": "Leon Bosnjak"
					}]
				},
				{
					"vaje": [{
						"naloge": [{
								"naloga": "1",
								"naziv": "Naloga 1: Staticna analiza izvorne kode",
								"opis": "Izberite si poljuben odprtokoden programski produkt in pridobite njegovo celotno izvorno kodo. Projekt naj ne bo trivialen. Vsebuje naj vsaj 5000 vrstic izvorne kode, razdeljenih v vec datotek. ",
								"datum_objave": "2016-10-04",
								"datum_oddaje": "2016-10-23",
								"ura_oddaje": "23:55",
								"stevilo_tock": "30"
							},
							{
								"naloga": "2",
								"naziv": "Naloga 2: Modeliranje procesa",
								"opis": "Izdelajte model izbranega procesa, ki ste si ga izbrali pri prejsnji nalogi. Model procesa naj bo v skladu z notacijo BPMN 2.0. ",
								"datum_objave": "2016-10-23",
								"datum_oddaje": "2016-11-23",
								"ura_oddaje": "23:55",
								"stevilo_tock": "20"
							}
						]
					}]
				},
				{
					"predavanja": [{
							"vmesni_izpiti": [{
									"kolokvij": "1",
									"gradivo": "-",
									"datum": "2016-11-25",
									"stevilo_tock": "25"
								},
								{
									"kolokvij": "2",
									"gradivo": "-",
									"datum": "2017-01-12",
									"stevilo_tock": "25"
								}
							]
						},
						{
							"izpiti": [{
									"izpit": "1",
									"gradivo": "-",
									"datum": "2017-02-23",
									"stevilo_tock": "50"
								},
								{
									"izpit": "2",
									"gradivo": "-",
									"datum": "2017-06-25",
									"stevilo_tock": "50"
								},
								{
									"izpit": "3",
									"gradivo": "-",
									"datum": "2017-08-20",
									"stevilo_tock": "50"
								}
							]
						}
					]
				}
			]
		},
		{
			"predmet": [{
					"informacije": [{
						"naziv": "PBII",
						"opis": "-",
						"obdobje_izvajanja": "Semester 1",
						"izvajatelj": "Bostjan Brumen",
						"asistent": "Leon Bosnjak"
					}]
				},
				{
					"vaje": [{
						"naloge": [{
								"naloga": "1",
								"naziv": "Merjenje casa izvajanja SQL",
								"opis": "Iz vasega E-R modela si izberite poljubni dve entiteti, ki sta med sabo povezani v relaciji 1:N. V vasi podatkovni bazi ti dve tabeli najprej popolnoma izpraznite(ukaz TRUNCATE oz.DELETE). ",
								"datum_objave": "2016-10-12",
								"datum_oddaje": "2016-10-23",
								"ura_oddaje": "23:55",
								"stevilo_tock": "5"
							},
							{
								"naloga": "2",
								"naziv": "B-Tree in Bitmap indeksi",
								"opis": "Podobno kot ste izmerili case izvajanja SQL stavkov v prejsnji nalogi (SELECT, UPDATE, INSERT, DELETE), zdaj izmerite koliko se razlikujejo casi izvajanja SQL stavkov za 100.000 zapisov v primeru, ko imate na posameznih atributih kreirane B - Tree indekse. ",
								"datum_objave": "2016-10-23",
								"datum_oddaje": "2016-11-13",
								"ura_oddaje": "23:55",
								"stevilo_tock": "20"
							},
							{
								"naloga": "3",
								"naziv": "Uporaba optimizatorjev",
								"opis": "Dolocena SQL povprasevanja lahko bodisi zaradi njihove kompleksnosti bodisi zaradi velikega nabora podatkov, do katerega morajo dostopati, trajajo precej casa. ",
								"datum_objave": "2016-11-13",
								"datum_oddaje": "2016-11-27",
								"ura_oddaje": "23:55",
								"stevilo_tock": "15"
							},
							{
								"naloga": "4",
								"naziv": "Klasifikacija",
								"opis": "V sklopu te naloge se bomo osredotocili na enega izmed pristopov podatkovnega rudarjenja: klasifikacijo.",
								"datum_objave": "2016-11-27",
								"datum_oddaje": "2016-12-12",
								"ura_oddaje": "23:55",
								"stevilo_tock": "10"
							}
						]
					}]
				},
				{
					"predavanja": [{
							"vmesni_izpiti": [{
									"kolokvij": "1",
									"gradivo": "-",
									"datum": "2016-11-15",
									"stevilo_tock": "25"
								},
								{
									"kolokvij": "2",
									"gradivo": "-",
									"datum": "2017-01-15",
									"stevilo_tock": "25"
								}
							]
						},
						{
							"izpiti": [{
									"izpit": "1",
									"gradivo": "-",
									"datum": "2017-02-22",
									"stevilo_tock": "50"
								},
								{
									"izpit": "2",
									"gradivo": "-",
									"datum": "2017-06-23",
									"stevilo_tock": "50"
								},
								{
									"izpit": "3",
									"gradivo": "-",
									"datum": "2017-08-17",
									"stevilo_tock": "50"
								}
							]
						}
					]
				}
			]
		},
		{
			"predmet": [{
					"informacije": [{
						"naziv": "RIVR",
						"opis": "Podporne tehnologije za vseprisotne sisteme: vgrajeni sistemi, komunikacijska infrastruktura, mobilno racunalnistvo. ",
						"obdobje_izvajanja": "Semester 1",
						"izvajatelj": "Domen Verber",
						"asistent": "Damijan Novak"
					}]
				},
				{
					"vaje": [{
						"naloge": [{
								"naloga": "1",
								"naziv": "Vaja 1 - grajenje graficnega vmesnika",
								"opis": "Ustvarite aplikacijo za vnos podatkov o zaposlenih.",
								"datum_objave": "2016-10-02",
								"datum_oddaje": "2016-10-23",
								"ura_oddaje": "23:55",
								"stevilo_tock": "15"
							},
							{
								"naloga": "2",
								"naziv": "Vaja 2 - SQLite",
								"opis": "Vajo 1 dopolnite z uporabo lokalne SQLite baze podatkov. Pri vpisu v bazo  podatkov se naj pojavi obvestilo v obliki dialoga ali Toast sporocila, ki naj sporoci, ce je bil podatek uspesno vpisan v bazo. ",
								"datum_objave": "2016-10-23",
								"datum_oddaje": "2016-11-13",
								"ura_oddaje": "23:55",
								"stevilo_tock": "15"
							},
							{
								"naloga": "3",
								"naziv": "Vaja 3 - povezava s spletom",
								"opis": "Naredite aplikacijo, ki s strani http://www.worldweatheronline.com/free-weather-feed.aspx pridobiva informacije o trenutnem vremenu na poljubni lokaciji...",
								"datum_objave": "2016-11-13",
								"datum_oddaje": "2016-11-26",
								"ura_oddaje": "23:55",
								"stevilo_tock": "20"
							}
						]
					}]
				},
				{
					"predavanja": [{
							"vmesni_izpiti": [{
									"kolokvij": "1",
									"gradivo": "-",
									"datum": "2016-11-05",
									"stevilo_tock": "25"
								},
								{
									"kolokvij": "2",
									"gradivo": "-",
									"datum": "2016-12-20",
									"stevilo_tock": "25"
								}
							]
						},
						{
							"izpiti": [{
									"izpit": "1",
									"gradivo": "-",
									"datum": "2017-02-25",
									"stevilo_tock": "50"
								},
								{
									"izpit": "2",
									"gradivo": "-",
									"datum": "2017-06-27",
									"stevilo_tock": "50"
								},
								{
									"izpit": "3",
									"gradivo": "-",
									"datum": "2017-09-08",
									"stevilo_tock": "50"
								}
							]
						}
					]
				}
			]
		}
	]
}